…
``` r
cv_df = 
  crossv_mc(nonlin_df, 100)
```

what is happening here …

``` r
cv_df %>% 
  pull(train) %>% 
  .[[1]] %>% 
  as_tibble()
```

    ## # A tibble: 79 × 3
    ##       id       x      y
    ##    <int>   <dbl>  <dbl>
    ##  1     1 0.0999   0.706
    ##  2     2 0.572    0.170
    ##  3     3 0.729   -0.540
    ##  4     6 0.876   -2.32 
    ##  5     8 0.135    0.414
    ##  6    10 0.585    0.190
    ##  7    11 0.00716 -0.167
    ##  8    12 0.0685   0.215
    ##  9    14 0.436    1.15 
    ## 10    15 0.215    1.09 
    ## # … with 69 more rows

``` r
cv_df %>% 
  pull(test) %>% 
  .[[1]] %>% 
  as_tibble()
```

    ## # A tibble: 21 × 3
    ##       id      x      y
    ##    <int>  <dbl>  <dbl>
    ##  1     4 0.674  -0.791
    ##  2     5 0.0882  0.841
    ##  3     7 0.735  -0.801
    ##  4     9 0.413   1.10 
    ##  5    13 0.360   0.881
    ##  6    16 0.0653  0.336
    ##  7    18 0.484   0.102
    ##  8    29 0.264   1.29 
    ##  9    37 0.146   0.983
    ## 10    40 0.332   0.709
    ## # … with 11 more rows
…
